<svg width="53" height="46" viewBox="0 0 53 46" fill="none" xmlns="http://www.w3.org/2000/svg">
<path d="M51.8953 1.66079e-07H1.10306C0.494908 1.66079e-07 0 0.490094 0 1.09498V36.1427C0 36.7491 0.494908 37.2385 1.10306 37.2385H19.4285L18.1071 43.81H17.6655C17.0573 43.81 16.5624 44.3009 16.5624 44.9058C16.5624 45.5107 17.0573 46 17.6655 46H35.3343C35.9425 46 36.4374 45.5106 36.4374 44.9058C36.4374 44.3011 35.9425 43.81 35.3343 43.81H34.8912L33.5681 37.2385H51.8953C52.5051 37.2385 53 36.7491 53 36.1427V1.09498C53 0.490094 52.5051 1.66079e-07 51.8953 1.66079e-07ZM20.3603 43.81L21.6801 37.2465L31.3168 37.2449L32.6398 43.81H20.3603ZM50.7922 2.19079V30.6669H2.20944V2.19079H50.7922ZM26.5 35.0485H2.20944V32.8569H26.5H50.7922V35.0485H26.5Z" fill="#212529"/>
<path d="M28 34C28 33.448 27.3291 33 26.5 33C25.6709 33 25 33.448 25 34C25 34.552 25.6707 35 26.5 35C27.3293 35 28 34.552 28 34Z" fill="#212529"/>
<path d="M15.0092 24C16.7051 24 18.4255 23.5686 19.9994 22.6589C24.7812 19.8984 26.4202 13.7835 23.6582 9.00083C21.8076 5.79365 18.4467 4 14.9913 4C13.2954 4 11.575 4.43208 10.0011 5.34115C5.21931 8.1024 3.58027 14.2173 6.34066 18.9992C8.19282 22.2072 11.5555 24 15.0092 24ZM21.1159 9.19615L16.0964 12.0941V10.5853L20.1979 8.21635C20.5316 8.51583 20.8376 8.84292 21.1159 9.19615ZM16.0965 8.01937V6.30229C16.7834 6.40073 17.4555 6.59042 18.0936 6.86625L16.0965 8.01937ZM22.2259 11.1207C22.3919 11.5391 22.5222 11.9687 22.6149 12.4049L18.5215 14.7682L17.2145 14.0139L22.2259 11.1207ZM22.7239 14.9074C22.68 15.2777 22.61 15.6464 22.5124 16.0125C22.431 16.3169 22.3301 16.6131 22.2161 16.9011L20.7431 16.0516L22.7239 14.9074ZM7.48971 11.9875C8.02678 9.98146 9.3126 8.30427 11.1127 7.26583C11.9688 6.77187 12.9063 6.44792 13.8731 6.30552V14H13.8942C13.8926 14.1912 13.9398 14.3849 14.0423 14.5623C14.1433 14.7356 14.2832 14.8707 14.4428 14.9651L14.4363 14.9765L21.1029 18.8249C20.5007 19.5858 19.7552 20.2344 18.8894 20.7341C17.7062 21.4169 16.365 21.7781 15.0092 21.7781C13.6664 21.7781 12.3367 21.4282 11.1681 20.7674C9.96531 20.0886 8.96105 19.0926 8.26616 17.8881C7.22773 16.0898 6.95263 13.9934 7.48971 11.9875Z" fill="#212529"/>
<path d="M6.11 29H23.89C24.5036 29 25 28.328 25 27.5C25 26.672 24.5035 26 23.89 26H6.11C5.49802 26 5 26.672 5 27.5C5 28.328 5.49812 29 6.11 29Z" fill="#212529"/>
<path d="M29.1101 24H46.8899C47.5036 24 48 23.4973 48 22.8744C48 22.2539 47.5035 21.7505 46.8899 21.7505H45.7781V7.12474C45.7781 6.50341 45.2801 6 44.6664 6C44.0527 6 43.5563 6.50341 43.5563 7.12474V21.7505H41.3344V13.8748C41.3344 13.2535 40.8364 12.7501 40.221 12.7501C39.609 12.7501 39.1109 13.2535 39.1109 13.8748V21.7505H36.8874V10.4998C36.8874 9.87846 36.3909 9.37505 35.7773 9.37505C35.1637 9.37505 34.6672 9.87846 34.6672 10.4998V21.7505H32.4437V16.1318C32.4437 15.5105 31.9456 15.0071 31.3336 15.0071C30.7184 15.0071 30.2202 15.5105 30.2202 16.1318V21.7505H29.1101C28.4964 21.7505 28 22.2539 28 22.8744C28 23.4973 28.4964 24 29.1101 24Z" fill="#212529"/>
<path d="M29.11 29H46.8883C47.502 29 48 28.328 48 27.5C48 26.672 47.502 26 46.8883 26H29.11C28.4964 26 28 26.672 28 27.5C28 28.328 28.4964 29 29.11 29Z" fill="#212529"/>
</svg>
