<?xml version="1.0" encoding="utf-8"?>
<!-- Generator: Adobe Illustrator 18.0.0, SVG Export Plug-In . SVG Version: 6.00 Build 0)  -->
<!DOCTYPE svg PUBLIC "-//W3C//DTD SVG 1.1//EN" "http://www.w3.org/Graphics/SVG/1.1/DTD/svg11.dtd">
<svg version="1.1" id="Слой_1" xmlns="http://www.w3.org/2000/svg" xmlns:xlink="http://www.w3.org/1999/xlink" x="0px" y="0px"
	 viewBox="87.9 117.1 73.9 20" enable-background="new 87.9 117.1 73.9 20" xml:space="preserve">
<g>
	<g>
		<g>
			<path fill="#FFFFFF" d="M87.9,123.7v-2.8h9.2v2.8h-3v9.6H91v-9.6H87.9z"/>
			<path fill="#FFFFFF" d="M104.7,130.6v2.6h-6.4v-2.6h1.6v-7.2h-1.4v-2.6h6.1v2.6h-1.4v7.2H104.7z"/>
			<path fill="#FFFFFF" d="M117.9,120.8h1.2v12.5h-3.3v-5.7l-2.7,2.8h-0.4l-2.7-2.8v5.7h-3.3v-12.5h1.2l4.9,5.4L117.9,120.8z"/>
		</g>
	</g>
	<path fill="#0069CF" d="M161.1,137.1h-37.6c-0.4,0-0.7-0.3-0.7-0.7v-18.6c0-0.4,0.3-0.7,0.7-0.7h37.7c0.4,0,0.7,0.3,0.7,0.7v18.6
		C161.8,136.8,161.4,137.1,161.1,137.1z"/>
	
		<linearGradient id="SVGID_1_" gradientUnits="userSpaceOnUse" x1="157.1007" y1="90.1292" x2="200.5754" y2="90.1292" gradientTransform="matrix(0.8065 0 0 -0.8065 0 201.6129)">
		<stop  offset="0" style="stop-color:#005FC7"/>
		<stop  offset="1" style="stop-color:#005FC7;stop-opacity:0.4"/>
	</linearGradient>
	<polygon fill="url(#SVGID_1_)" points="126.7,133.3 131.3,137.1 161.8,137.1 161.8,125.2 157.3,121 148.4,122.8 146.5,120.8 
		141.5,123.4 138.9,126.2 135.2,122.2 128.3,122.9 	"/>
	<g>
		<g>
			<path fill="#FFFFFF" d="M135,126.7c1,0.5,1.5,1.5,1.5,2.7c0,2.1-1.4,3.8-3.9,3.8h-6v-12.4h5.5c2.3,0,3.9,1.5,3.9,3.8
				C136,125.4,135.6,126.2,135,126.7z M129.9,123.6v2.1h2c0.6,0,0.9-0.5,1-1c0-0.6-0.3-1.1-1-1.1L129.9,123.6L129.9,123.6z
				 M129.9,128.3v2h2.5c0.6,0,0.9-0.5,1-1c0-0.4-0.1-0.8-0.4-1c-0.2-0.1-0.3-0.1-0.5-0.1L129.9,128.3L129.9,128.3z"/>
			<path fill="#FFFFFF" d="M146.3,123.7h-4.5v1.8h4.1v2.8h-4.1v2h4.7v3h-7.9v-12.4h7.8L146.3,123.7L146.3,123.7z"/>
			<path fill="#FFFFFF" d="M147.7,123.7v-2.8h9.2v2.8h-3v9.6h-3.1v-9.6H147.7z"/>
		</g>
	</g>
</g>
</svg>
