<?xml version="1.0" encoding="utf-8"?>
<!-- Generator: Adobe Illustrator 18.0.0, SVG Export Plug-In . SVG Version: 6.00 Build 0)  -->
<!DOCTYPE svg PUBLIC "-//W3C//DTD SVG 1.1//EN" "http://www.w3.org/Graphics/SVG/1.1/DTD/svg11.dtd">
<svg version="1.1" id="Layer_1" xmlns="http://www.w3.org/2000/svg" xmlns:xlink="http://www.w3.org/1999/xlink" x="0px" y="0px"
	 viewBox="-99 -95.1 250 250" enable-background="new -99 -95.1 250 250" xml:space="preserve">
<g>
	<path d="M25.1,39.7c0.3,0,0.5,0,0.8,0c0.1,0,0.2,0,0.3,0c0.2,0,0.4,0,0.5,0c15.2-0.3,27.4-5.6,36.5-15.8
		c19.9-22.5,16.6-61,16.3-64.7c-1.3-27.6-14.3-40.8-25.1-47c-8-4.6-17.4-7.1-27.9-7.3h-0.4c-0.1,0-0.2,0-0.2,0h-0.3
		c-5.7,0-17,0.9-27.9,7.1s-24.1,19.4-25.4,47.2c-0.4,3.7-3.7,42.2,16.3,64.7C-2.3,34.1,9.9,39.4,25.1,39.7z M-13.8-39.5
		c0-0.2,0.1-0.3,0.1-0.4C-12-77,14.3-81,25.6-81h0.2c0.1,0,0.3,0,0.4,0c14,0.3,37.7,6,39.3,41.1c0,0.2,0,0.3,0.1,0.4
		c0.1,0.4,3.7,35.6-12.8,54.1c-6.5,7.4-15.2,11-26.7,11.1c-0.1,0-0.2,0-0.3,0c-0.1,0-0.2,0-0.3,0C14.3,25.6,5.5,22-0.9,14.6
		C-17.4-3.8-13.8-39.1-13.8-39.5z"/>
	<path d="M132.3,103.6c0-0.1,0-0.1,0-0.2c0-0.4-0.1-0.8-0.1-1.3c-0.3-10.3-1-34.2-23.5-41.9c-0.2-0.1-0.4-0.1-0.5-0.2
		c-23.3-6-42.8-19.4-43-19.6c-3.2-2.2-7.5-1.4-9.7,1.7c-2.2,3.2-1.4,7.5,1.7,9.7c0.9,0.6,21.5,15,47.3,21.6
		c12.1,4.3,13.4,17.2,13.8,29c0,0.5,0,0.9,0.1,1.3c0.1,4.7-0.3,11.9-1.1,16c-8.4,4.8-41.3,21.2-91.3,21.2
		c-49.8,0-82.9-16.5-91.3-21.3c-0.8-4.1-1.2-11.3-1.1-16c0-0.4,0.1-0.8,0.1-1.3c0.4-11.8,1.7-24.7,13.8-29
		c25.8-6.6,46.4-21,47.3-21.6c3.2-2.2,3.9-6.6,1.7-9.7c-2.2-3.2-6.6-3.9-9.7-1.7c-0.2,0.2-19.5,13.6-43,19.6
		c-0.2,0.1-0.4,0.1-0.5,0.2c-22.5,7.7-23.1,31.7-23.5,41.9c0,0.5,0,0.9-0.1,1.3c0,0.1,0,0.1,0,0.2c-0.1,2.7-0.1,16.5,2.6,23.5
		c0.5,1.3,1.4,2.5,2.7,3.3c1.6,1,38.8,24.7,101.1,24.7s99.5-23.8,101.1-24.7c1.2-0.8,2.2-1.9,2.7-3.3
		C132.4,120.1,132.4,106.3,132.3,103.6z"/>
</g>
</svg>
