<?xml version="1.0" encoding="utf-8"?>
<!-- Generator: Adobe Illustrator 18.0.0, SVG Export Plug-In . SVG Version: 6.00 Build 0)  -->
<!DOCTYPE svg PUBLIC "-//W3C//DTD SVG 1.1//EN" "http://www.w3.org/Graphics/SVG/1.1/DTD/svg11.dtd">
<svg version="1.1" id="Layer_1" xmlns="http://www.w3.org/2000/svg" xmlns:xlink="http://www.w3.org/1999/xlink" x="0px" y="0px"
	 viewBox="-115.5 -115.5 250 250" enable-background="new -115.5 -115.5 250 250" xml:space="preserve">
<g>
	<path d="M19.7-95.3c2.8-3.7,2.4-11.7,2-18.7c0-0.3,0-0.6,0-0.9c-4-0.4-8-0.6-12-0.6c-15.6,0-30.5,2.9-44.2,8.1
		c9.8,4.7,25,12.8,41.9,24.8C13-87.6,17.3-92.2,19.7-95.3z"/>
	<path d="M83.1-24c-6.2,0.7-11.4,1.7-15.8,3.1C88.5,16.2,96.8,63.1,98.8,97c21.1-21.4,34.4-50.4,35.7-82.5C120-3.3,100.8-26,83.1-24
		z"/>
	<path d="M-43.3-56c14.9-3.1,29-10.6,40.1-18.5c-23.3-16.1-42.8-24.4-46.7-26C-74-87.4-93.4-66.6-104.7-41.4
		C-90-47.2-74.2-50.2-58.6-53C-53.5-54-48.3-54.9-43.3-56z"/>
	<path d="M43.1-52.4c1.3,1.3,2.7,2.7,4,4.1c4.9,5.1,9.3,10.7,13.3,16.6c5.9-2.2,12.9-3.8,21.2-4.7c19.6-2.2,37,13.3,52,30.4
		c-3.2-25.9-14.3-49.3-30.9-67.8c-9,1.1-19.1,2.9-29.4,6C66.6-65.8,55.9-60.4,43.1-52.4z"/>
	<path d="M26.7,12.2c5.1-17.4,11.1-29.9,22.6-38c-3.5-5-7.2-9.6-11.2-13.8c-1.9-2-3.7-3.8-5.6-5.7C-13.8-13.9-77,43.8-82.8,93.8
		c19.2,21,45.5,35.4,75.1,39.5c10.8-21.4,20.9-65,26.9-90.9C22.1,29.9,24.6,19.2,26.7,12.2z"/>
	<path d="M-25.7-15.3C-9.6-30.2,7.4-43.5,23-54.2C17.8-58.7,12.6-63,7.5-66.9c-12.9,9.7-29.8,19.3-48.2,23.1
		c-5.2,1.1-10.4,2.1-15.5,3c-19.7,3.7-38.5,7.2-54.4,16c-3.1,10.9-4.8,22.3-4.8,34.2c0,26.6,8.3,51.2,22.4,71.4
		C-83.9,44.7-52.5,9.4-25.7-15.3z"/>
	<path d="M33.8-61.3c14.9-9.5,27.7-16,36-18.5c7.5-2.2,14.8-3.9,21.7-5c-16-13.9-35.7-23.9-57.3-28.2c0.5,8.7,0.7,18.3-4.6,25.3
		c-2.5,3.3-6.7,7.8-12.2,12.8C22.8-70.8,28.3-66.3,33.8-61.3z"/>
	<path d="M38.7,15.7c-2,6.6-4.4,17.2-7.3,29.5C23,81.4,15,113.7,5.5,134.4c1.3,0,2.7,0.1,4,0.1c29.1,0,55.9-10,77.2-26.7
		C85.9,72.3,77.4,22,55.9-15.3C47.6-9.1,43.1,0.6,38.7,15.7z"/>
</g>
</svg>
