<?xml version="1.0" encoding="utf-8"?>
<!-- Generator: Adobe Illustrator 18.0.0, SVG Export Plug-In . SVG Version: 6.00 Build 0)  -->
<!DOCTYPE svg PUBLIC "-//W3C//DTD SVG 1.1//EN" "http://www.w3.org/Graphics/SVG/1.1/DTD/svg11.dtd">
<svg version="1.1" id="Layer_1" xmlns="http://www.w3.org/2000/svg" xmlns:xlink="http://www.w3.org/1999/xlink" x="0px" y="0px"
	 viewBox="0 0 18 18" enable-background="new 0 0 18 18" xml:space="preserve">
<g>
	<path d="M6.1,9.5H4.7c-0.2,0-0.4,0.2-0.4,0.4v1.4c0,0.2,0.2,0.4,0.4,0.4h1.4c0.2,0,0.4-0.2,0.4-0.4V9.9C6.6,9.7,6.4,9.5,6.1,9.5z"
		/>
	<path d="M9.7,9.5H8.3c-0.2,0-0.4,0.2-0.4,0.4v1.4c0,0.2,0.2,0.4,0.4,0.4h1.4c0.2,0,0.4-0.2,0.4-0.4V9.9C10.1,9.7,9.9,9.5,9.7,9.5z"
		/>
	<path d="M13.3,9.5h-1.4c-0.2,0-0.4,0.2-0.4,0.4v1.4c0,0.2,0.2,0.4,0.4,0.4h1.4c0.2,0,0.4-0.2,0.4-0.4V9.9
		C13.7,9.7,13.5,9.5,13.3,9.5z"/>
	<path d="M6.1,13.1H4.7c-0.2,0-0.4,0.2-0.4,0.4v1.4c0,0.2,0.2,0.4,0.4,0.4h1.4c0.2,0,0.4-0.2,0.4-0.4v-1.4
		C6.6,13.3,6.4,13.1,6.1,13.1z"/>
	<path d="M9.7,13.1H8.3c-0.2,0-0.4,0.2-0.4,0.4v1.4c0,0.2,0.2,0.4,0.4,0.4h1.4c0.2,0,0.4-0.2,0.4-0.4v-1.4
		C10.1,13.3,9.9,13.1,9.7,13.1z"/>
	<path d="M13.3,13.1h-1.4c-0.2,0-0.4,0.2-0.4,0.4v1.4c0,0.2,0.2,0.4,0.4,0.4h1.4c0.2,0,0.4-0.2,0.4-0.4v-1.4
		C13.7,13.3,13.5,13.1,13.3,13.1z"/>
	<path d="M16.2,2v2.2c0,1-0.8,1.8-1.8,1.8h-1.1c-1,0-1.8-0.8-1.8-1.8V2H6.5v2.2c0,1-0.8,1.8-1.8,1.8H3.5c-1,0-1.8-0.8-1.8-1.8V2
		C0.9,2,0.2,2.7,0.2,3.6v12.8c0,0.9,0.7,1.6,1.6,1.6h14.4c0.9,0,1.6-0.7,1.6-1.6V3.6C17.8,2.7,17.1,2,16.2,2z M15,16.3H3
		c-0.4,0-0.7-0.3-0.7-0.7V9c0-0.4,0.3-0.7,0.7-0.7H15c0.4,0,0.7,0.3,0.7,0.7l0,6.6C15.7,16,15.4,16.3,15,16.3z"/>
	<path d="M3.5,4.8h1.1c0.3,0,0.6-0.3,0.6-0.6V0.6C5.3,0.3,5,0,4.7,0H3.5C3.2,0,2.9,0.3,2.9,0.6v3.6C2.9,4.5,3.2,4.8,3.5,4.8z"/>
	<path d="M13.3,4.8h1.1c0.3,0,0.6-0.3,0.6-0.6V0.6C15,0.3,14.8,0,14.4,0h-1.1c-0.3,0-0.6,0.3-0.6,0.6v3.6C12.7,4.5,13,4.8,13.3,4.8z
		"/>
</g>
</svg>
