<?xml version="1.0" encoding="utf-8"?>
<!-- Generator: Adobe Illustrator 18.0.0, SVG Export Plug-In . SVG Version: 6.00 Build 0)  -->
<!DOCTYPE svg PUBLIC "-//W3C//DTD SVG 1.1//EN" "http://www.w3.org/Graphics/SVG/1.1/DTD/svg11.dtd">
<svg version="1.1" id="Layer_1" xmlns="http://www.w3.org/2000/svg" xmlns:xlink="http://www.w3.org/1999/xlink" x="0px" y="0px"
	 viewBox="0 0 250 250" enable-background="new 0 0 250 250" xml:space="preserve">
<title>Combined Shape</title>
<desc>Created with Sketch.</desc>
<g id="Page-1">
	<g id="Styleguide" transform="translate(-1516.000000, -489.000000)">
		<g id="Stacked-Group" transform="translate(1516.000000, 489.000000)">
			<path id="Combined-Shape" d="M125,101L29,5l0,0C22.4-1.6,11.6-1.6,5,5l0,0l0,0c-6.6,6.6-6.6,17.4,0,24l96,96L5,221l0,0
				c-6.6,6.6-6.6,17.4,0,24l0,0l0,0c6.6,6.6,17.4,6.6,24,0l96-96l96,96c6.6,6.6,17.4,6.6,24,0s6.6-17.4,0-24l0,0l-96-96l96-96
				c6.6-6.6,6.6-17.4,0-24s-17.4-6.6-24,0l0,0L125,101z"/>
		</g>
	</g>
</g>
</svg>
