<?xml version="1.0" encoding="utf-8"?>
<!-- Generator: Adobe Illustrator 18.0.0, SVG Export Plug-In . SVG Version: 6.00 Build 0)  -->
<!DOCTYPE svg PUBLIC "-//W3C//DTD SVG 1.1//EN" "http://www.w3.org/Graphics/SVG/1.1/DTD/svg11.dtd">
<svg version="1.1" id="Layer_1" xmlns="http://www.w3.org/2000/svg" xmlns:xlink="http://www.w3.org/1999/xlink" x="0px" y="0px"
	 viewBox="0 0 250 250" enable-background="new 0 0 250 250" xml:space="preserve">
<g>
	<g transform="translate(-1839 -710)">
		<g>
			<path id="m4oda" d="M2033.4,791h-47.2v-26c0-9.7,7.6-11.9,13-11.9h33.3v-43l-45.8-0.1c-51.1,0-62.7,31.9-62.7,52.3v28.6h-29.4
				V835h29.4V960h62V835h41.9L2033.4,791z"/>
		</g>
	</g>
</g>
</svg>
