<?xml version="1.0" encoding="utf-8"?>
<!-- Generator: Adobe Illustrator 18.0.0, SVG Export Plug-In . SVG Version: 6.00 Build 0)  -->
<!DOCTYPE svg PUBLIC "-//W3C//DTD SVG 1.1//EN" "http://www.w3.org/Graphics/SVG/1.1/DTD/svg11.dtd">
<svg version="1.1" id="Layer_1" xmlns="http://www.w3.org/2000/svg" xmlns:xlink="http://www.w3.org/1999/xlink" x="0px" y="0px"
	 viewBox="-111.5 -111.5 250 250" enable-background="new -111.5 -111.5 250 250" xml:space="preserve">
<g>
	<polygon points="59.1,-53.8 18.3,-91.8 -38.6,-71.4 -36.8,-17.7 25.6,-5.8 	"/>
	<polygon points="3.9,91.3 34.5,123.3 88.1,100.4 96.8,53.1 43.7,46.5 	"/>
	<path d="M13.5-111.5c-69,0-125,56-125,125c0,15.5,2.8,30.3,8,43.9l0,0.8l0.7,0.8c18.2,46.5,63.5,79.4,116.4,79.4
		c69,0,125-56,125-125C138.5-55.5,82.5-111.5,13.5-111.5z M13.5,132c-31.9,0-60.9-12.7-82.3-33.3l23-19.8l-21.9-56.6l-34.3-11.8
		l-0.8,25.2c-1.4-7.2-2.1-14.6-2.1-22.2c0-15.8,3.1-30.8,8.8-44.6l29.6-36.7l7.7-12.3C-38.9-95.7-13.8-105,13.5-105c0.7,0,1.3,0,2,0
		l13.2,4.9l29.1,3.7c18.7,7.6,35,19.7,47.5,35.1l-4.9,21.1l19.2,54l12.2,3.1C130,80.7,77.7,132,13.5,132z"/>
</g>
</svg>
