<?xml version="1.0" encoding="utf-8"?>
<!-- Generator: Adobe Illustrator 18.0.0, SVG Export Plug-In . SVG Version: 6.00 Build 0)  -->
<!DOCTYPE svg PUBLIC "-//W3C//DTD SVG 1.1//EN" "http://www.w3.org/Graphics/SVG/1.1/DTD/svg11.dtd">
<svg version="1.1" id="Layer_1" xmlns="http://www.w3.org/2000/svg" xmlns:xlink="http://www.w3.org/1999/xlink" x="0px" y="0px"
	 viewBox="-116 -116 250 250" enable-background="new -116 -116 250 250" xml:space="preserve">
<path d="M97.4-79.4c-48.8-48.8-128-48.8-176.8,0c-48.8,48.8-48.8,128,0,176.8c48.8,48.8,128,48.8,176.8,0
	C146.2,48.6,146.2-30.6,97.4-79.4z M25.3,63.4c0,9-7.3,16.3-16.3,16.3c-9,0-16.3-7.3-16.3-16.3V-1.9c0-9,7.3-16.3,16.3-16.3
	c9,0,16.3,7.3,16.3,16.3V63.4z M8.7-29.7c-9.4,0-15.7-6.7-15.5-14.9c-0.2-8.6,6.1-15.1,15.6-15.1c9.6,0,15.7,6.5,15.9,15.1
	C24.7-36.4,18.5-29.7,8.7-29.7z"/>
</svg>
