<?xml version="1.0" encoding="utf-8"?>
<!-- Generator: Adobe Illustrator 18.0.0, SVG Export Plug-In . SVG Version: 6.00 Build 0)  -->
<!DOCTYPE svg PUBLIC "-//W3C//DTD SVG 1.1//EN" "http://www.w3.org/Graphics/SVG/1.1/DTD/svg11.dtd">
<svg version="1.1" id="Layer_1" xmlns="http://www.w3.org/2000/svg" xmlns:xlink="http://www.w3.org/1999/xlink" x="0px" y="0px"
	 viewBox="0 0 250 250" enable-background="new 0 0 250 250" xml:space="preserve">
<path d="M249.3,37.4l-37.7,177.9c-2.8,12.6-10.3,15.7-20.8,9.8l-57.5-42.4l-27.7,26.7c-3.1,3.1-5.6,5.6-11.6,5.6l4.1-58.5
	l106.5-96.3c4.6-4.1-1-6.4-7.2-2.3L65.7,140.9L9,123.1c-12.3-3.9-12.6-12.3,2.6-18.2l221.8-85.4C243.6,15.6,252.6,21.7,249.3,37.4z"
	/>
</svg>
