<?xml version="1.0" encoding="utf-8"?>
<!-- Generator: Adobe Illustrator 18.0.0, SVG Export Plug-In . SVG Version: 6.00 Build 0)  -->
<!DOCTYPE svg PUBLIC "-//W3C//DTD SVG 1.1//EN" "http://www.w3.org/Graphics/SVG/1.1/DTD/svg11.dtd">
<svg version="1.1" id="Layer_1" xmlns="http://www.w3.org/2000/svg" xmlns:xlink="http://www.w3.org/1999/xlink" x="0px" y="0px"
	 viewBox="-115.5 -115.5 250 250" enable-background="new -115.5 -115.5 250 250" xml:space="preserve">
<g>
	<path d="M-59.6,9.5c0-5.9-1.8-11.3-4.9-15.9c-3.6,4.3-5.8,9.8-5.8,15.9c0,6,2.2,11.6,5.8,15.9C-61.4,20.8-59.6,15.4-59.6,9.5z"/>
	<path d="M-110.6-6.4c-3.1,4.5-4.9,10-4.9,15.9c0,5.9,1.8,11.3,4.9,15.9c3.6-4.3,5.8-9.8,5.8-15.9C-104.8,3.5-107-2.1-110.6-6.4z"/>
	<path d="M-68.9-11.3c-4.9-4.4-11.5-7.2-18.7-7.2c-7.2,0-13.7,2.7-18.7,7.2c4.9,5.5,8,12.8,8,20.8s-3,15.3-8,20.8
		c5,4.4,11.5,7.2,18.7,7.2c7.2,0,13.7-2.7,18.7-7.2c-4.9-5.5-8-12.8-8-20.8S-73.8-5.8-68.9-11.3z"/>
	<path d="M130.1,108.9l-58-58c-2-2-4.4-3.2-6.9-3.9C50.8,29,47.7,9.2,47.1,1.2c6.5-27.5-3.5-61-28.6-86.1
		c-35.3-35.3-87.3-40.9-115.8-12.4c-20,20-23.2,51.7-11,81c4.5-3.6,10-6.1,16-6.9l-8.2-8.2c-0.2-0.9-0.5-1.8-0.7-2.8l11.9-11.9
		l12.9,12.9l-9.6,9.6c3.4,0.2,6.7,0.8,9.7,1.9l5.7-5.7l12.9,12.9l-3.7,3.7c1.7,2.2,3.2,4.7,4.3,7.3l5.1-5.1L-39,4.2l-12.9,12.9
		l-2.9-2.9c-1.1,7.8-5,14.7-10.6,19.8c21.4,13.4,45.7,18,66.5,13.1c8,0.6,27.9,3.7,45.8,18.1c0.6,2.5,1.9,4.9,3.9,6.9l58,58
		c5.9,5.9,15.4,5.9,21.2,0C136,124.2,136,114.7,130.1,108.9z M36-7.2l-7.2-7.2l7.6-7.6C36.8-17,36.7-12,36-7.2z M-33.2-64.8
		l12.9,12.9L-33.2-39l-12.9-12.9L-33.2-64.8z M-51.9-57.7l-12.9-12.9l12.9-12.9L-39-70.6L-51.9-57.7z M-14.5-46.1l12.9,12.9
		l-12.9,12.9l-12.9-12.9L-14.5-46.1z M-8.7-51.9L4.2-64.8l12.9,12.9L4.2-39L-8.7-51.9z M-1.6,4.2l-12.9,12.9L-27.4,4.2l12.9-12.9
		L-1.6,4.2z M-8.7-14.5L4.2-27.4l12.9,12.9L4.2-1.6L-8.7-14.5z M23-8.7L33.8,2.2c-2,6.1-5.1,11.7-9.2,16.6L10.1,4.2L23-8.7z
		 M34.8-32.2L23-20.3L10.1-33.2L23-46.1l11.2,11.2C34.4-34,34.6-33.1,34.8-32.2z M12.7-73.2c4.3,4.6,8,9.5,11.2,14.6L23-57.7
		L10.1-70.6L12.7-73.2z M-7.8-90.2c5.1,3.2,10,6.9,14.6,11.2l-2.6,2.6L-8.7-89.3L-7.8-90.2z M-1.6-70.6l-12.9,12.9l-12.9-12.9
		l12.9-12.9L-1.6-70.6z M-31.4-100.5l11.2,11.2l-12.9,12.9l-12.9-12.9l11.9-11.9C-33.3-101-32.4-100.7-31.4-100.5z M-44.3-102.8
		l-7.6,7.6l-7.2-7.2C-54.3-103.1-49.4-103.2-44.3-102.8z M-68.6-100.2l10.9,10.9l-12.9,12.9L-85.2-91
		C-80.3-95.2-74.7-98.2-68.6-100.2z M-102.7-44.3c-0.4-5.1-0.3-10,0.4-14.9l7.2,7.2L-102.7-44.3z M-100.2-68.6
		c2-6.1,5.1-11.7,9.2-16.6l14.6,14.6l-12.9,12.9L-100.2-68.6z M-70.6-39l-12.9-12.9l12.9-12.9l12.9,12.9L-70.6-39z M-64.8-33.2
		l12.9-12.9L-39-33.2l-12.9,12.9L-64.8-33.2z M-46.1-14.5l12.9-12.9l12.9,12.9L-33.2-1.6L-46.1-14.5z M-34.9,34.1L-46.1,23
		l12.9-12.9L-20.3,23l-11.9,11.9C-33.1,34.6-34,34.4-34.9,34.1z M-22.1,36.4l7.6-7.6l7.2,7.2C-12,36.7-17,36.8-22.1,36.4z M2.2,33.8
		L-8.7,23L4.2,10.1l14.6,14.6C13.9,28.8,8.3,31.8,2.2,33.8z M50.9,50.9c-0.8,0.8-1.4,1.6-2,2.5c-10.1-7.1-20.5-11.3-29.2-13.7
		c4-2.4,7.8-5.4,11.2-8.8c3.4-3.4,6.3-7.2,8.8-11.2c2.4,8.7,6.6,19.1,13.7,29.2C52.5,49.4,51.6,50.1,50.9,50.9z"/>
</g>
</svg>
