<svg width="17" height="15" viewBox="0 0 17 15" fill="none" xmlns="http://www.w3.org/2000/svg">
<path d="M16.9789 2.38471C16.9439 2.28658 16.8711 2.20587 16.7763 2.16192L13.5352 0.665707C12.8458 0.432158 12.1434 0.247676 11.4342 0.112839C11.4092 0.107949 11.3844 0.105591 11.3599 0.105591C11.1843 0.105591 11.0271 0.226795 10.988 0.404546C10.729 1.54468 9.71972 2.39829 8.49997 2.39829C7.28028 2.39829 6.27095 1.54474 6.01203 0.404546C5.97246 0.226795 5.81553 0.105591 5.64008 0.105591C5.61557 0.105591 5.59072 0.107949 5.56576 0.112839C4.85659 0.247676 4.15422 0.432158 3.46369 0.665707L0.223739 2.16186C0.128363 2.20581 0.0550767 2.28652 0.02177 2.38466C-0.0126872 2.48394 -0.00647456 2.59111 0.0420762 2.68476L1.44913 5.46159C1.51499 5.59337 1.64897 5.67247 1.79071 5.67247C1.82729 5.67247 1.8644 5.66718 1.90098 5.65619L3.46375 5.193V14.5103C3.46375 14.7218 3.63638 14.8944 3.84853 14.8944H13.1516C13.3632 14.8944 13.5353 14.7218 13.5353 14.5103V5.19312L15.0991 5.65631C15.1357 5.66729 15.1728 5.67259 15.2093 5.67259C15.3507 5.67259 15.4842 5.59349 15.551 5.4617L16.9586 2.68488C17.006 2.59117 17.0127 2.484 16.9789 2.38471Z" fill="#808080"/>
</svg>
