<svg width="28" height="28" viewBox="0 0 28 28" fill="none" xmlns="http://www.w3.org/2000/svg">
<path fill-rule="evenodd" clip-rule="evenodd" d="M14 28C21.732 28 28 21.732 28 14C28 6.26801 21.732 0 14 0C6.26801 0 0 6.26801 0 14C0 21.732 6.26801 28 14 28Z" fill="url(#paint0_linear)"/>
<path fill-rule="evenodd" clip-rule="evenodd" d="M11.4333 20.4167C10.9798 20.4167 11.0568 20.2454 10.9004 19.8136L9.56665 15.424L19.8333 9.33334" fill="#C8DAEA"/>
<path fill-rule="evenodd" clip-rule="evenodd" d="M11.4333 20.4167C11.7833 20.4167 11.938 20.2566 12.1333 20.0667L14 18.2516L11.6716 16.8475" fill="#A9C9DD"/>
<path fill-rule="evenodd" clip-rule="evenodd" d="M11.6713 16.8478L17.3133 21.0162C17.9571 21.3714 18.4218 21.1875 18.5822 20.4185L20.8788 9.59612C21.1139 8.65343 20.5194 8.22587 19.9035 8.50549L6.41801 13.7054C5.4975 14.0747 5.50286 14.5882 6.25022 14.817L9.7109 15.8972L17.7227 10.8426C18.101 10.6132 18.4481 10.7365 18.1632 10.9894" fill="url(#paint1_linear)"/>
<defs>
<linearGradient id="paint0_linear" x1="10.5014" y1="1.1676" x2="3.5014" y2="17.5" gradientUnits="userSpaceOnUse">
<stop stop-color="#37AEE2"/>
<stop offset="1" stop-color="#1E96C8"/>
</linearGradient>
<linearGradient id="paint1_linear" x1="12.2474" y1="14.86" x2="13.7433" y2="19.6987" gradientUnits="userSpaceOnUse">
<stop stop-color="#EFF7FC"/>
<stop offset="1" stop-color="white"/>
</linearGradient>
</defs>
</svg>
